锘縶"code":200,"success":true,"message":"忙聼楼猫炉垄忙聢聬氓聤聼","data":[{"id":33,"employee_no":"EMP2024010","name":"氓聠炉氓聧聛盲潞聦","gender":1,"id_card":null,"phone":"13800138010","email":"feng12@company.com","dept_id":1,"dept_name":"莽聰聼盲潞搂茅聝篓","role_id":null,"role_name":null,"position":"忙聯聧盲陆聹氓路楼","entry_date":"2024-01-09T16:00:00.000Z","status":1,"address":"忙路卤氓聹鲁氓赂聜氓陇搂茅鹿聫忙聳掳氓聦潞","emergency_contact":null,"emergency_phone":null,"education":"茅芦聵盲赂颅","remark":null,"create_time":"2026-04-01T07:27:01.000Z","update_time":"2026-04-01T07:27:01.000Z","photo":null,"age":null,"section":null,"birth_date":null,"native_place":null,"home_address":null,"current_address":null,"birth_month":null,"id_card_expiry":null,"id_card_issue_date":null,"id_card_expiry_date":null},{"id":32,"employee_no":"EMP2024009","name":"茅聮卤氓聧聛盲赂聙","gender":2,"id_card":null,"phone":"13800138009","email":"qian11@company.com","dept_id":4,"dept_name":"茅聰聙氓聰庐茅聝篓","role_id":null,"role_name":null,"position":"茅聰聙氓聰庐盲禄拢猫隆篓","entry_date":"2023-07-14T16:00:00.000Z","status":1,"address":"忙路卤氓聹鲁氓赂聜氓聺陋氓卤卤氓聦潞","emergency_contact":null,"emergency_phone":null,"education":"氓陇搂盲赂聯","remark":null,"create_time":"2026-04-01T07:27:01.000Z","update_time":"2026-04-01T07:27:01.000Z","photo":null,"age":null,"section":null,"birth_date":null,"native_place":null,"home_address":null,"current_address":null,"birth_month":null,"id_card_expiry":null,"id_card_issue_date":null,"id_card_expiry_date":null},{"id":31,"employee_no":"EMP2024008","name":"茅聝聭氓聧聛","gender":1,"id_card":null,"phone":"13800138008","email":"zhengshi@company.com","dept_id":7,"dept_name":"莽聽聰氓聫聭茅聝篓","role_id":null,"role_name":null,"position":"氓路楼莽篓聥氓赂聢","entry_date":"2022-05-19T16:00:00.000Z","status":1,"address":"忙路卤氓聹鲁氓赂聜氓聟聣忙聵聨氓聦潞","emergency_contact":null,"emergency_phone":null,"education":"莽隆聲氓拢芦","remark":null,"create_time":"2026-04-01T07:27:01.000Z","update_time":"2026-04-01T07:27:01.000Z","photo":null,"age":null,"section":null,"birth_date":null,"native_place":null,"home_address":null,"current_address":null,"birth_month":null,"id_card_expiry":null,"id_card_issue_date":null,"id_card_expiry_date":null},{"id":30,"employee_no":"EMP2024007","name":"氓聬麓盲鹿聺","gender":2,"id_card":null,"phone":"13800138007","email":"wujiu@company.com","dept_id":6,"dept_name":"猫麓垄氓聤隆茅聝篓","role_id":null,"role_name":null,"position":"盲录職猫庐隆","entry_date":"2023-01-07T16:00:00.000Z","status":1,"address":"忙路卤氓聹鲁氓赂聜氓聧聴氓卤卤氓聦潞","emergency_contact":null,"emergency_phone":null,"education":"忙聹卢莽搂聭","remark":null,"create_time":"2026-04-01T07:27:01.000Z","update_time":"2026-04-01T07:27:01.000Z","photo":null,"age":null,"section":null,"birth_date":null,"native_place":null,"home_address":null,"current_address":null,"birth_month":null,"id_card_expiry":null,"id_card_issue_date":null,"id_card_expiry_date":null},{"id":29,"employee_no":"EMP2024006","name":"氓聭篓氓聟芦","gender":1,"id_card":null,"phone":"13800138006","email":"zhouba@company.com","dept_id":5,"dept_name":"盲禄聯氓潞聯茅聝篓","role_id":null,"role_name":null,"position":"盲禄聯氓潞聯盲赂禄莽庐隆","entry_date":"2020-08-31T16:00:00.000Z","status":1,"address":"忙路卤氓聹鲁氓赂聜茅戮聶氓聧聨氓聦潞","emergency_contact":null,"emergency_phone":null,"education":"氓陇搂盲赂聯","remark":null,"create_time":"2026-04-01T07:27:01.000Z","update_time":"2026-04-01T07:27:01.000Z","photo":null,"age":null,"section":null,"birth_date":null,"native_place":null,"home_address":null,"current_address":null,"birth_month":null,"id_card_expiry":null,"id_card_issue_date":null,"id_card_expiry_date":null},{"id":28,"employee_no":"EMP2024005","name":"氓颅聶盲赂聝","gender":2,"id_card":null,"phone":"13800138005","email":"sunqi@company.com","dept_id":4,"dept_name":"茅聰聙氓聰庐茅聝篓","role_id":null,"role_name":null,"position":"茅聰聙氓聰庐莽禄聫莽聬聠","entry_date":"2021-11-11T16:00:00.000Z","status":1,"address":"忙路卤氓聹鲁氓赂聜莽陆聴忙鹿聳氓聦潞","emergency_contact":null,"emergency_phone":null,"education":"忙聹卢莽搂聭","remark":null,"create_time":"2026-04-01T07:27:01.000Z","update_time":"2026-04-01T07:27:01.000Z","photo":null,"age":null,"section":null,"birth_date":null,"native_place":null,"home_address":null,"current_address":null,"birth_month":null,"id_card_expiry":null,"id_card_issue_date":null,"id_card_expiry_date":null},{"id":27,"employee_no":"EMP2024004","name":"猫碌碌氓聟颅","gender":1,"id_card":null,"phone":"13800138004","email":"zhaoliu@company.com","dept_id":3,"dept_name":"茅聡聡猫麓颅茅聝篓","role_id":null,"role_name":null,"position":"茅聡聡猫麓颅盲赂聯氓聭聵","entry_date":"2022-08-04T16:00:00.000Z","status":1,"address":"忙路卤氓聹鲁氓赂聜茅戮聶氓虏聴氓聦潞","emergency_contact":null,"emergency_phone":null,"education":"忙聹卢莽搂聭","remark":null,"create_time":"2026-04-01T07:27:01.000Z","update_time":"2026-04-01T07:27:01.000Z","photo":null,"age":null,"section":null,"birth_date":null,"native_place":null,"home_address":null,"current_address":null,"birth_month":null,"id_card_expiry":null,"id_card_issue_date":null,"id_card_expiry_date":null},{"id":26,"employee_no":"EMP2024003","name":"莽聨聥盲潞聰","gender":1,"id_card":null,"phone":"13800138003","email":"wangwu@company.com","dept_id":1,"dept_name":"莽聰聼盲潞搂茅聝篓","role_id":null,"role_name":null,"position":"忙聤聙忙聹炉氓聭聵","entry_date":"2023-03-09T16:00:00.000Z","status":1,"address":"忙路卤氓聹鲁氓赂聜氓庐聺氓庐聣氓聦潞","emergency_contact":null,"emergency_phone":null,"education":"氓陇搂盲赂聯","remark":null,"create_time":"2026-04-01T07:27:01.000Z","update_time":"2026-04-01T07:27:01.000Z","photo":null,"age":null,"section":null,"birth_date":null,"native_place":null,"home_address":null,"current_address":null,"birth_month":null,"id_card_expiry":null,"id_card_issue_date":null,"id_card_expiry_date":null},{"id":25,"employee_no":"EMP2024002","name":"忙聺聨氓聸聸","gender":1,"id_card":null,"phone":"13800138002","email":"lisi@company.com","dept_id":2,"dept_name":"氓聯聛猫麓篓茅聝篓","role_id":null,"role_name":null,"position":"氓聯聛猫麓篓莽禄聫莽聬聠","entry_date":"2021-06-19T16:00:00.000Z","status":1,"address":"忙路卤氓聹鲁氓赂聜莽娄聫莽聰掳氓聦潞","emergency_contact":null,"emergency_phone":null,"education":"忙聹卢莽搂聭","remark":null,"create_time":"2026-04-01T07:27:01.000Z","update_time":"2026-04-01T07:27:01.000Z","photo":null,"age":null,"section":null,"birth_date":null,"native_place":null,"home_address":null,"current_address":null,"birth_month":null,"id_card_expiry":null,"id_card_issue_date":null,"id_card_expiry_date":null},{"id":24,"employee_no":"EMP2024001","name":"氓录聽盲赂聣","gender":1,"id_card":null,"phone":"13800138001","email":"zhangsan@company.com","dept_id":1,"dept_name":"莽聰聼盲潞搂茅聝篓","role_id":null,"role_name":null,"position":"莽聰聼盲潞搂盲赂禄莽庐隆","entry_date":"2022-01-14T16:00:00.000Z","status":1,"address":"忙路卤氓聹鲁氓赂聜氓聧聴氓卤卤氓聦潞","emergency_contact":null,"emergency_phone":null,"education":"忙聹卢莽搂聭","remark":null,"create_time":"2026-04-01T07:27:01.000Z","update_time":"2026-04-01T07:27:01.000Z","photo":null,"age":null,"section":null,"birth_date":null,"native_place":null,"home_address":null,"current_address":null,"birth_month":null,"id_card_expiry":null,"id_card_issue_date":null,"id_card_expiry_date":null},{"id":22,"employee_no":"E2024022","name":"猫聮聥忙鲁聲氓聤隆","gender":1,"id_card":null,"phone":"13800138022","email":"jiang@dachang.com","dept_id":4,"dept_name":"忙鲁聲氓聤隆茅聝篓","role_id":3,"role_name":"忙鲁聲氓聤隆茅隆戮茅聴庐","position":"忙鲁聲氓聤隆盲赂禄莽庐隆","entry_date":"2026-03-22T16:00:00.000Z","status":1,"address":null,"emergency_contact":null,"emergency_phone":null,"education":"莽隆聲氓拢芦","remark":"忙聣搂盲赂職氓戮聥氓赂聢","create_time":"2026-03-20T06:15:36.000Z","update_time":"2026-03-23T02:12:25.000Z","photo":"/uploads/employees/1774231932135-mnsom8.png","age":null,"section":null,"birth_date":null,"native_place":null,"home_address":null,"current_address":null,"birth_month":null,"id_card_expiry":null,"id_card_issue_date":null,"id_card_expiry_date":null},{"id":21,"employee_no":"E2024021","name":"氓聧芦盲驴隆忙聛炉","gender":1,"id_card":null,"phone":"13800138021","email":"wei@dachang.com","dept_id":21,"dept_name":"盲驴隆忙聛炉茅聝篓","role_id":19,"role_name":"IT氓路楼莽篓聥氓赂聢","position":"IT盲赂禄莽庐隆","entry_date":"2012-06-29T16:00:00.000Z","status":1,"address":null,"emergency_contact":null,"emergency_phone":null,"education":"忙聹卢莽搂聭","remark":"莽鲁禄莽禄聼忙聻露忙聻聞氓赂聢","create_time":"2026-03-20T06:15:36.000Z","update_time":"2026-03-20T06:15:36.000Z","photo":null,"age":null,"section":null,"birth_date":null,"native_place":null,"home_address":null,"current_address":null,"birth_month":null,"id_card_expiry":null,"id_card_issue_date":null,"id_card_expiry_date":null},{"id":20,"employee_no":"E2024020","name":"猫陇職氓庐隆猫庐隆","gender":1,"id_card":null,"phone":"13800138020","email":"chu@dachang.com","dept_id":20,"dept_name":"氓庐隆猫庐隆茅聝篓","role_id":18,"role_name":"氓庐隆猫庐隆氓聭聵","position":"氓庐隆猫庐隆盲赂禄莽庐隆","entry_date":"2015-10-17T16:00:00.000Z","status":1,"address":null,"emergency_contact":null,"emergency_phone":null,"education":"忙聹卢莽搂聭","remark":"忙鲁篓氓聠聦盲录職猫庐隆氓赂聢","create_time":"2026-03-20T06:15:36.000Z","update_time":"2026-03-20T06:15:36.000Z","photo":null,"age":null,"section":null,"birth_date":null,"native_place":null,"home_address":null,"current_address":null,"birth_month":null,"id_card_expiry":null,"id_card_issue_date":null,"id_card_expiry_date":null},{"id":19,"employee_no":"E2024019","name":"茅聶聢猫庐隆氓聢聮","gender":1,"id_card":null,"phone":"13800138019","email":"chen2@dachang.com","dept_id":19,"dept_name":"猫庐隆氓聢聮茅聝篓","role_id":17,"role_name":"猫庐隆氓聢聮氓聭聵","position":"猫庐隆氓聢聮盲赂禄莽庐隆","entry_date":"2018-05-24T16:00:00.000Z","status":1,"address":null,"emergency_contact":null,"emergency_phone":null,"education":"忙聹卢莽搂聭","remark":"猫庐隆氓聢聮莽庐隆莽聬聠盲赂聯氓庐露","create_time":"2026-03-20T06:15:36.000Z","update_time":"2026-03-20T06:15:36.000Z","photo":null,"age":null,"section":null,"birth_date":null,"native_place":null,"home_address":null,"current_address":null,"birth_month":null,"id_card_expiry":null,"id_card_issue_date":null,"id_card_expiry_date":null},{"id":18,"employee_no":"E2024018","name":"氓聠炉猫庐戮猫庐隆","gender":2,"id_card":null,"phone":"13800138018","email":"feng@dachang.com","dept_id":18,"dept_name":"猫庐戮猫庐隆茅聝篓","role_id":16,"role_name":"猫庐戮猫庐隆氓赂聢","position":"猫庐戮猫庐隆盲赂禄莽庐隆","entry_date":"2020-07-11T16:00:00.000Z","status":1,"address":null,"emergency_contact":null,"emergency_phone":null,"education":"忙聹卢莽搂聭","remark":"猫碌聞忙路卤猫庐戮猫庐隆氓赂聢","create_time":"2026-03-20T06:15:36.000Z","update_time":"2026-03-20T06:15:36.000Z","photo":null,"age":null,"section":null,"birth_date":null,"native_place":null,"home_address":null,"current_address":null,"birth_month":null,"id_card_expiry":null,"id_card_issue_date":null,"id_card_expiry_date":null},{"id":17,"employee_no":"E2024017","name":"莽聨聥莽聣漏忙碌聛","gender":1,"id_card":null,"phone":"13800138017","email":"wang@dachang.com","dept_id":17,"dept_name":"莽聣漏忙碌聛茅聝篓","role_id":15,"role_name":"莽聣漏忙碌聛莽禄聫莽聬聠","position":"莽聣漏忙碌聛莽禄聫莽聬聠","entry_date":"2014-11-07T16:00:00.000Z","status":1,"address":null,"emergency_contact":null,"emergency_phone":null,"education":"氓陇搂盲赂聯","remark":"莽聣漏忙碌聛莽庐隆莽聬聠盲赂聯氓庐露","create_time":"2026-03-20T06:15:36.000Z","update_time":"2026-03-20T06:15:36.000Z","photo":null,"age":null,"section":null,"birth_date":null,"native_place":null,"home_address":null,"current_address":null,"birth_month":null,"id_card_expiry":null,"id_card_issue_date":null,"id_card_expiry_date":null},{"id":16,"employee_no":"E2024016","name":"茅聝聭氓庐垄忙聹聧","gender":2,"id_card":null,"phone":"13800138016","email":"zheng@dachang.com","dept_id":16,"dept_name":"氓庐垄忙聹聧茅聝篓","role_id":14,"role_name":"氓庐垄忙聹聧莽禄聫莽聬聠","position":"氓庐垄忙聹聧莽禄聫莽聬聠","entry_date":"2019-03-19T16:00:00.000Z","status":1,"address":null,"emergency_contact":null,"emergency_phone":null,"education":"忙聹卢莽搂聭","remark":"氓庐垄忙聢路忙聹聧氓聤隆盲赂聯氓庐露","create_time":"2026-03-20T06:15:36.000Z","update_time":"2026-03-20T06:15:36.000Z","photo":null,"age":null,"section":null,"birth_date":null,"native_place":null,"home_address":null,"current_address":null,"birth_month":null,"id_card_expiry":null,"id_card_issue_date":null,"id_card_expiry_date":null},{"id":15,"employee_no":"E2024015","name":"氓聬麓莽聽聰氓聫聭","gender":1,"id_card":null,"phone":"13800138015","email":"wu@dachang.com","dept_id":15,"dept_name":"莽聽聰氓聫聭茅聝篓","role_id":13,"role_name":"莽聽聰氓聫聭莽禄聫莽聬聠","position":"莽聽聰氓聫聭莽禄聫莽聬聠","entry_date":"2013-08-31T16:00:00.000Z","status":1,"address":null,"emergency_contact":null,"emergency_phone":null,"education":"莽隆聲氓拢芦","remark":"茅芦聵莽潞搂氓路楼莽篓聥氓赂聢","create_time":"2026-03-20T06:15:36.000Z","update_time":"2026-03-20T06:15:36.000Z","photo":null,"age":null,"section":null,"birth_date":null,"native_place":null,"home_address":null,"current_address":null,"birth_month":null,"id_card_expiry":null,"id_card_issue_date":null,"id_card_expiry_date":null},{"id":14,"employee_no":"E2024014","name":"氓聭篓氓庐聣氓聟篓","gender":1,"id_card":null,"phone":"13800138014","email":"zhou@dachang.com","dept_id":14,"dept_name":"氓庐聣氓聟篓茅聝篓","role_id":12,"role_name":"氓庐聣氓聟篓莽禄聫莽聬聠","position":"氓庐聣氓聟篓莽禄聫莽聬聠","entry_date":"2017-08-14T16:00:00.000Z","status":1,"address":null,"emergency_contact":null,"emergency_phone":null,"education":"忙聹卢莽搂聭","remark":"忙鲁篓氓聠聦氓庐聣氓聟篓氓路楼莽篓聥氓赂聢","create_time":"2026-03-20T06:15:36.000Z","update_time":"2026-03-20T06:15:36.000Z","photo":null,"age":null,"section":null,"birth_date":null,"native_place":null,"home_address":null,"current_address":null,"birth_month":null,"id_card_expiry":null,"id_card_issue_date":null,"id_card_expiry_date":null},{"id":13,"employee_no":"E2024013","name":"氓聢聵猫庐戮氓陇聡","gender":1,"id_card":null,"phone":"13800138013","email":"liu@dachang.com","dept_id":13,"dept_name":"猫庐戮氓陇聡茅聝篓","role_id":11,"role_name":"猫庐戮氓陇聡莽禄聫莽聬聠","position":"猫庐戮氓陇聡莽禄聫莽聬聠","entry_date":"2016-04-09T16:00:00.000Z","status":1,"address":null,"emergency_contact":null,"emergency_phone":null,"education":"忙聹卢莽搂聭","remark":"猫庐戮氓陇聡莽庐隆莽聬聠盲赂聯氓庐露","create_time":"2026-03-20T06:15:36.000Z","update_time":"2026-03-20T06:15:36.000Z","photo":null,"age":null,"section":null,"birth_date":null,"native_place":null,"home_address":null,"current_address":null,"birth_month":null,"id_card_expiry":null,"id_card_issue_date":null,"id_card_expiry_date":null}],"pagination":{"page":1,"pageSize":20,"total":30,"totalPages":2}}
